Final Project - Part 1
…
Explanation: at the first plot we chose to explore the summarize tables to see the changes in the patients status over the time. it seems that as the time passes the number of confirmed patients significantly increases were as the deaths and recovered stays relatively low.

at the second plot we chose to explore the number of active patients for each day - it seems that since the 16/03/2021 it starts to increase significantly.

After Exploring those two data sets we thought they can be more useful to our research if we combine them together , we found a third data set that gives us information about the political party of each state. the division into states was determined by election to the presidency

## # A tibble: 50 x 10
##    State `2020 president~ Governor `State Senate` `State House` `SeniorU.S. Sen~
##    <chr> <chr>            <chr>    <chr>          <chr>         <chr>           
##  1 Alab~ Republican       Republi~ Republican 27~ Republican 7~ Republican      
##  2 Alas~ Republican       Republi~ Republican 13~ Coalition 23~ Republican      
##  3 Ariz~ Democratic       Republi~ Republican 16~ Republican 3~ Democratic      
##  4 Arka~ Republican       Republi~ Republican 28~ Republican 7~ Republican      
##  5 Cali~ Democratic       Democra~ Democratic 31~ Democratic 5~ Democratic      
##  6 Colo~ Democratic       Democra~ Democratic 20~ Democratic 4~ Democratic      
##  7 Conn~ Democratic       Democra~ Democratic 24~ Democratic 9~ Democratic      
##  8 Dela~ Democratic       Democra~ Democratic 14~ Democratic 2~ Democratic      
##  9 Flor~ Republican       Republi~ Republican 24~ Republican 7~ Republican      
## 10 Geor~ Democratic       Republi~ Republican 34~ Republican 1~ Democratic      
## # ... with 40 more rows, and 4 more variables: JuniorU.S. Senator <chr>,
## #   U.S. House of Representatives <chr>,
## #   Party registration or identification (% as of 2020[update]) <chr>,
## #   short_state <chr>
…
